fpu/fpu.vcd
$date
	Mon Apr  8 23:19:18 2024
$end
$version
	Icarus Verilog
$end
$timescale
	100ps
$end
$scope module tb_fpu $end
$var wire 1 ! zero $end
$var wire 1 " snan $end
$var wire 1 # qnan $end
$var wire 1 $ overflow $end
$var wire 32 % out [31:0] $end
$var wire 1 & inf $end
$var wire 1 ' ine $end
$var wire 1 ( div_by_zero $end
$var reg 1 ) clk $end
$var reg 3 * fpu_op [2:0] $end
$var reg 32 + opa [31:0] $end
$var reg 32 , opb [31:0] $end
$var reg 2 - rmode [1:0] $end
$scope module uut $end
$var wire 1 ) clk $end
$var wire 1 . div_00 $end
$var wire 1 / div_inf $end
$var wire 3 0 fpu_op [2:0] $end
$var wire 1 1 ine_div $end
$var wire 1 2 ine_fasu $end
$var wire 1 3 ine_mul $end
$var wire 1 4 ine_mula $end
$var wire 1 5 inf_fmul $end
$var wire 1 6 mul_00 $end
$var wire 1 7 mul_inf $end
$var wire 32 8 opa [31:0] $end
$var wire 32 9 opb [31:0] $end
$var wire 1 : output_zero_fasu $end
$var wire 1 ; output_zero_fdiv $end
$var wire 1 < output_zero_fmul $end
$var wire 1 = overflow_fasu $end
$var wire 1 > overflow_fdiv $end
$var wire 1 ? overflow_fmul $end
$var wire 2 @ rmode [1:0] $end
$var wire 1 A underflow_fasu $end
$var wire 1 B underflow_fdiv $end
$var wire 1 C underflow_fmul $end
$var wire 1 D underflow_fmul1 $end
$var wire 3 E underflow_fmul_d [2:0] $end
$var wire 1 F underflow_d $end
$var wire 1 G snan_d $end
$var wire 1 H sign_mul_final $end
$var wire 1 I sign_mul $end
$var wire 1 J sign_fasu $end
$var wire 1 K sign_exe $end
$var wire 1 L sign_div_final $end
$var wire 1 M sign_d $end
$var wire 1 N result_zero_sign_d $end
$var wire 1 O remainder_00 $end
$var wire 50 P remainder [49:0] $end
$var wire 50 Q quo [49:0] $end
$var wire 1 R qnan_d $end
$var wire 48 S prod [47:0] $end
$var wire 1 T overflow_d $end
$var wire 31 U out_fixed [30:0] $end
$var wire 1 V out_d_00 $end
$var wire 31 W out_d [30:0] $end
$var wire 1 X opb_nan $end
$var wire 1 Y opb_inf $end
$var wire 1 Z opb_dn $end
$var wire 1 [ opb_00 $end
$var wire 1 \ opa_nan $end
$var wire 1 ] opa_inf $end
$var wire 1 ^ opa_dn $end
$var wire 1 _ opa_00 $end
$var wire 1 ` nan_sign_d $end
$var wire 1 a inf_mul $end
$var wire 1 b inf_d $end
$var wire 1 c ine_d $end
$var wire 1 d ind_d $end
$var wire 24 e fractb_mul [23:0] $end
$var wire 27 f fractb [26:0] $end
$var wire 24 g fracta_mul [23:0] $end
$var wire 27 h fracta [26:0] $end
$var wire 27 i fract_out_d [26:0] $end
$var wire 48 j fract_div [47:0] $end
$var wire 50 k fdiv_opa [49:0] $end
$var wire 1 l fasu_op $end
$var wire 1 m f2i_out_sign $end
$var wire 2 n exp_ovf [1:0] $end
$var wire 8 o exp_mul [7:0] $end
$var wire 8 p exp_fasu [7:0] $end
$var wire 1 q co_d $end
$var reg 1 ( div_by_zero $end
$var reg 5 r div_opa_ldz_d [4:0] $end
$var reg 5 s div_opa_ldz_r1 [4:0] $end
$var reg 5 t div_opa_ldz_r2 [4:0] $end
$var reg 2 u exp_ovf_r [1:0] $end
$var reg 8 v exp_r [7:0] $end
$var reg 1 w fasu_op_r1 $end
$var reg 1 x fasu_op_r2 $end
$var reg 3 y fpu_op_r1 [2:0] $end
$var reg 3 z fpu_op_r2 [2:0] $end
$var reg 3 { fpu_op_r3 [2:0] $end
$var reg 48 | fract_denorm [47:0] $end
$var reg 48 } fract_i2f [47:0] $end
$var reg 28 ~ fract_out_q [27:0] $end
$var reg 1 ' ine $end
$var reg 1 & inf $end
$var reg 1 !" inf_mul2 $end
$var reg 1 "" inf_mul_r $end
$var reg 1 #" opa_nan_r $end
$var reg 32 $" opa_r [31:0] $end
$var reg 31 %" opa_r1 [30:0] $end
$var reg 1 &" opas_r1 $end
$var reg 1 '" opas_r2 $end
$var reg 32 (" opb_r [31:0] $end
$var reg 32 )" out [31:0] $end
$var reg 1 $ overflow $end
$var reg 1 # qnan $end
$var reg 2 *" rmode_r1 [1:0] $end
$var reg 2 +" rmode_r2 [1:0] $end
$var reg 2 ," rmode_r3 [1:0] $end
$var reg 1 -" sign $end
$var reg 1 ." sign_exe_r $end
$var reg 1 /" sign_fasu_r $end
$var reg 1 0" sign_mul_r $end
$var reg 1 " snan $end
$var reg 1 1" underflow $end
$var reg 3 2" underflow_fmul_r [2:0] $end
$var reg 1 ! zero $end
$scope module u0 $end
$var wire 1 ) clk $end
$var wire 32 3" opa [31:0] $end
$var wire 32 4" opb [31:0] $end
$var wire 23 5" fractb [22:0] $end
$var wire 23 6" fracta [22:0] $end
$var wire 8 7" expb [7:0] $end
$var wire 8 8" expa [7:0] $end
$var reg 1 9" expa_00 $end
$var reg 1 :" expa_ff $end
$var reg 1 ;" expb_00 $end
$var reg 1 <" expb_ff $end
$var reg 1 =" fracta_00 $end
$var reg 1 >" fractb_00 $end
$var reg 1 d ind $end
$var reg 1 b inf $end
$var reg 1 ?" infa_f_r $end
$var reg 1 @" infb_f_r $end
$var reg 1 _ opa_00 $end
$var reg 1 ^ opa_dn $end
$var reg 1 ] opa_inf $end
$var reg 1 \ opa_nan $end
$var reg 1 [ opb_00 $end
$var reg 1 Z opb_dn $end
$var reg 1 Y opb_inf $end
$var reg 1 X opb_nan $end
$var reg 1 R qnan $end
$var reg 1 A" qnan_r_a $end
$var reg 1 B" qnan_r_b $end
$var reg 1 G snan $end
$var reg 1 C" snan_r_a $end
$var reg 1 D" snan_r_b $end
$upscope $end
$scope module u1 $end
$var wire 1 E" add $end
$var wire 1 ) clk $end
$var wire 32 F" opa [31:0] $end
$var wire 1 \ opa_nan $end
$var wire 32 G" opb [31:0] $end
$var wire 1 X opb_nan $end
$var wire 2 H" rmode [1:0] $end
$var wire 1 I" signb $end
$var wire 1 J" signa $end
$var wire 1 K" op_dn $end
$var wire 1 L" nan_sign1 $end
$var wire 27 M" fractb_s [26:0] $end
$var wire 27 N" fractb_n [26:0] $end
$var wire 1 O" fractb_lt_fracta $end
$var wire 23 P" fractb [22:0] $end
$var wire 27 Q" fracta_s [26:0] $end
$var wire 27 R" fracta_n [26:0] $end
$var wire 23 S" fracta [22:0] $end
$var wire 1 T" expb_dn $end
$var wire 8 U" expb [7:0] $end
$var wire 1 V" expa_lt_expb $end
$var wire 1 W" expa_dn $end
$var wire 8 X" expa [7:0] $end
$var wire 8 Y" exp_small [7:0] $end
$var wire 1 Z" exp_lt_27 $end
$var wire 8 [" exp_large [7:0] $end
$var wire 5 \" exp_diff_sft [4:0] $end
$var wire 8 ]" exp_diff2 [7:0] $end
$var wire 8 ^" exp_diff1a [7:0] $end
$var wire 8 _" exp_diff1 [7:0] $end
$var wire 8 `" exp_diff [7:0] $end
$var wire 27 a" adj_op_tmp [26:0] $end
$var wire 27 b" adj_op_out_sft [26:0] $end
$var wire 27 c" adj_op_out [26:0] $end
$var wire 23 d" adj_op [22:0] $end
$var reg 1 e" add_d $end
$var reg 1 f" add_r $end
$var reg 8 g" exp_dn_out [7:0] $end
$var reg 1 l fasu_op $end
$var reg 1 h" fracta_eq_fractb $end
$var reg 1 i" fracta_lt_fractb $end
$var reg 27 j" fracta_out [26:0] $end
$var reg 27 k" fractb_out [26:0] $end
$var reg 1 ` nan_sign $end
$var reg 1 N result_zero_sign $end
$var reg 1 J sign $end
$var reg 1 l" sign_d $end
$var reg 1 m" signa_r $end
$var reg 1 n" signb_r $end
$var reg 1 o" sticky $end
$upscope $end
$scope module u2 $end
$var wire 1 ) clk $end
$var wire 3 p" fpu_op [2:0] $end
$var wire 32 q" opa [31:0] $end
$var wire 32 r" opb [31:0] $end
$var wire 3 s" underflow_d [2:0] $end
$var wire 1 t" signb $end
$var wire 1 u" signa $end
$var wire 1 v" opb_00 $end
$var wire 1 w" opa_00 $end
$var wire 1 x" op_div $end
$var wire 1 y" fractb_00 $end
$var wire 24 z" fractb [23:0] $end
$var wire 1 {" fracta_00 $end
$var wire 24 |" fracta [23:0] $end
$var wire 1 }" expb_dn $end
$var wire 8 ~" expb [7:0] $end
$var wire 1 !# expa_dn $end
$var wire 8 "# expa [7:0] $end
$var wire 8 ## exp_tmp5 [7:0] $end
$var wire 8 $# exp_tmp4 [7:0] $end
$var wire 8 %# exp_tmp3 [7:0] $end
$var wire 8 &# exp_tmp2 [7:0] $end
$var wire 8 '# exp_tmp1 [7:0] $end
$var wire 2 (# exp_ovf_d [1:0] $end
$var wire 8 )# exp_out_mul [7:0] $end
$var wire 8 *# exp_out_div [7:0] $end
$var wire 8 +# exp_out_a [7:0] $end
$var wire 1 ,# co2 $end
$var wire 1 -# co1 $end
$var reg 8 .# exp_out [7:0] $end
$var reg 2 /# exp_ovf [1:0] $end
$var reg 1 a inf $end
$var reg 1 I sign $end
$var reg 1 0# sign_d $end
$var reg 1 K sign_exe $end
$var reg 3 1# underflow [2:0] $end
$upscope $end
$scope module u3 $end
$var wire 1 l add $end
$var wire 27 2# opa [26:0] $end
$var wire 27 3# opb [26:0] $end
$var wire 27 4# sum [26:0] $end
$var wire 1 q co $end
$upscope $end
$scope module u4 $end
$var wire 1 ) clk $end
$var wire 1 5# div_dn $end
$var wire 1 6# div_inf $end
$var wire 1 7# div_nr $end
$var wire 5 8# div_opa_ldz [4:0] $end
$var wire 1 9# dn $end
$var wire 8 :# exp_in [7:0] $end
$var wire 1 ;# exp_in_80 $end
$var wire 1 <# exp_out_fe $end
$var wire 2 =# exp_ovf [1:0] $end
$var wire 1 ># exp_zero $end
$var wire 1 ?# f2i_ine $end
$var wire 1 @# f2i_max $end
$var wire 1 A# f2i_zero $end
$var wire 3 B# fpu_op [2:0] $end
$var wire 48 C# fract_in [47:0] $end
$var wire 1 D# grs_sel_div $end
$var wire 1 E# inf_out $end
$var wire 1 F# max_num $end
$var wire 1 G# op_dn $end
$var wire 1 ^ opa_dn $end
$var wire 1 '" opas $end
$var wire 1 Z opb_dn $end
$var wire 1 H# output_zero $end
$var wire 1 I# overflow_fdiv $end
$var wire 1 J# ovf0 $end
$var wire 1 K# ovf1 $end
$var wire 1 L# r_sign $end
$var wire 1 O rem_00 $end
$var wire 2 M# rmode [1:0] $end
$var wire 1 N# round $end
$var wire 1 O# round2_f2i $end
$var wire 1 P# round2_fasu $end
$var wire 1 Q# round2_fmul $end
$var wire 1 R# round2a $end
$var wire 1 -" sign $end
$var wire 1 S# undeflow_div $end
$var wire 1 T# underflow_fmul $end
$var wire 1 U# z $end
$var wire 1 F underflow $end
$var wire 8 V# shift_right [7:0] $end
$var wire 8 W# shift_left [7:0] $end
$var wire 8 X# shftr_mul [7:0] $end
$var wire 8 Y# shftr_div [7:0] $end
$var wire 8 Z# shftl_mul [7:0] $end
$var wire 8 [# shftl_div [7:0] $end
$var wire 1 \# shft_co $end
$var wire 1 ]# s $end
$var wire 1 ^# round2 $end
$var wire 1 _# rmode_11 $end
$var wire 1 `# rmode_10 $end
$var wire 1 a# rmode_01 $end
$var wire 1 b# rmode_00 $end
$var wire 1 c# r $end
$var wire 1 T overflow $end
$var wire 31 d# out [30:0] $end
$var wire 1 e# op_mul $end
$var wire 1 f# op_i2f $end
$var wire 1 g# op_f2i $end
$var wire 1 h# op_div $end
$var wire 1 i# lr_mul $end
$var wire 1 j# lr_div $end
$var wire 1 k# left_right $end
$var wire 8 l# ldz_dif [7:0] $end
$var wire 7 m# ldz_all [6:0] $end
$var wire 1 c ine $end
$var wire 1 n# g $end
$var wire 25 o# fract_trunc [24:0] $end
$var wire 23 p# fract_out_rnd2a [22:0] $end
$var wire 23 q# fract_out_rnd2 [22:0] $end
$var wire 23 r# fract_out_rnd1 [22:0] $end
$var wire 23 s# fract_out_rnd0 [22:0] $end
$var wire 24 t# fract_out_pl1 [23:0] $end
$var wire 23 u# fract_out_final [22:0] $end
$var wire 1 v# fract_out_7fffff $end
$var wire 1 w# fract_out_00 $end
$var wire 23 x# fract_out [22:0] $end
$var wire 48 y# fract_in_shftr [47:0] $end
$var wire 48 z# fract_in_shftl [47:0] $end
$var wire 1 {# fract_in_00 $end
$var wire 6 |# fi_ldz_mi22 [5:0] $end
$var wire 6 }# fi_ldz_mi1 [5:0] $end
$var wire 7 ~# fi_ldz_2a [6:0] $end
$var wire 8 !$ fi_ldz_2 [7:0] $end
$var wire 8 "$ fasu_shift [7:0] $end
$var wire 8 #$ f2i_shft [7:0] $end
$var wire 1 m f2i_out_sign $end
$var wire 8 $$ f2i_emin [7:0] $end
$var wire 1 %$ exp_rnd_adj2a $end
$var wire 1 &$ exp_rnd_adj0 $end
$var wire 8 '$ exp_out_rnd2a [7:0] $end
$var wire 8 ($ exp_out_rnd2 [7:0] $end
$var wire 8 )$ exp_out_rnd1 [7:0] $end
$var wire 8 *$ exp_out_rnd0 [7:0] $end
$var wire 8 +$ exp_out_pl1 [7:0] $end
$var wire 8 ,$ exp_out_mi1 [7:0] $end
$var wire 1 -$ exp_out_final_ff $end
$var wire 8 .$ exp_out_final [7:0] $end
$var wire 1 /$ exp_out_ff $end
$var wire 1 0$ exp_out_00 $end
$var wire 8 1$ exp_out1_mi1 [7:0] $end
$var wire 1 2$ exp_out1_co $end
$var wire 8 3$ exp_out1 [7:0] $end
$var wire 8 4$ exp_out [7:0] $end
$var wire 9 5$ exp_next_mi [8:0] $end
$var wire 9 6$ exp_in_pl1 [8:0] $end
$var wire 9 7$ exp_in_mi1 [8:0] $end
$var wire 1 8$ exp_in_ff $end
$var wire 1 9$ exp_in_00 $end
$var wire 8 :$ exp_i2f [7:0] $end
$var wire 8 ;$ exp_fix_divb [7:0] $end
$var wire 8 <$ exp_fix_diva [7:0] $end
$var wire 8 =$ exp_fix_div [7:0] $end
$var wire 56 >$ exp_f2i_1 [55:0] $end
$var wire 8 ?$ exp_f2i [7:0] $end
$var wire 8 @$ exp_div [7:0] $end
$var wire 8 A$ div_shft4 [7:0] $end
$var wire 8 B$ div_shft3 [7:0] $end
$var wire 8 C$ div_shft2 [7:0] $end
$var wire 1 D$ div_shft1_co $end
$var wire 8 E$ div_shft1 [7:0] $end
$var wire 9 F$ div_scht1a [8:0] $end
$var wire 8 G$ div_exp3 [7:0] $end
$var wire 8 H$ div_exp2 [7:0] $end
$var wire 9 I$ div_exp1 [8:0] $end
$var wire 8 J$ conv_shft [7:0] $end
$var wire 8 K$ conv_exp [7:0] $end
$var reg 8 L$ exp_out_rnd [7:0] $end
$var reg 6 M$ fi_ldz [5:0] $end
$var reg 23 N$ fract_out_rnd [22:0] $end
$upscope $end
$scope module u5 $end
$var wire 1 ) clk $end
$var wire 24 O$ opa [23:0] $end
$var wire 24 P$ opb [23:0] $end
$var reg 48 Q$ prod [47:0] $end
$var reg 48 R$ prod1 [47:0] $end
$upscope $end
$scope module u6 $end
$var wire 1 ) clk $end
$var wire 50 S$ opa [49:0] $end
$var wire 24 T$ opb [23:0] $end
$var reg 50 U$ quo [49:0] $end
$var reg 50 V$ quo1 [49:0] $end
$var reg 50 W$ rem [49:0] $end
$var reg 50 X$ remainder [49:0] $end
$upscope $end
$upscope $end
$upscope $end
$enddefinitions $end
#0
$dumpvars
bx X$
bx W$
bx V$
bx U$
bx T$
bx00000000000000000000000000 S$
bx R$
bx Q$
bx P$
bx O$
bx N$
bx M$
bx L$
bx K$
bx J$
bx I$
bx H$
bx G$
bx F$
bx E$
xD$
bx C$
bx B$
bx A$
bx @$
bx ?$
bx >$
bx =$
bx <$
bx ;$
bx :$
x9$
x8$
bx 7$
bx 6$
bx 5$
bx 4$
bx 3$
x2$
bx 1$
x0$
x/$
bx .$
x-$
bx ,$
bx +$
bx *$
bx )$
bx ($
bx '$
x&$
x%$
b111111x $$
bx #$
bx "$
bx !$
bx ~#
bx }#
bx |#
x{#
bx z#
bx y#
bx x#
xw#
xv#
bx u#
bx t#
bx s#
bx r#
bx q#
bx p#
bx o#
xn#
bx m#
bx l#
xk#
xj#
xi#
xh#
xg#
xf#
xe#
bx d#
xc#
xb#
xa#
x`#
x_#
x^#
x]#
x\#
bx [#
bx Z#
bx Y#
bx X#
bx W#
bx V#
xU#
xT#
xS#
xR#
xQ#
xP#
xO#
xN#
bx M#
xL#
xK#
xJ#
xI#
xH#
xG#
xF#
xE#
xD#
bx C#
bx B#
xA#
x@#
x?#
x>#
bx =#
x<#
x;#
bx :#
x9#
bx 8#
x7#
x6#
x5#
bx 4#
bx 3#
bx 2#
bx 1#
x0#
bx /#
bx .#
x-#
x,#
bx +#
bx *#
bx )#
bx (#
bx '#
bx &#
bx %#
bx $#
bx ##
bx "#
x!#
bx ~"
x}"
bx |"
x{"
bx z"
xy"
xx"
xw"
xv"
xu"
xt"
bx s"
bx r"
bx q"
bx p"
xo"
xn"
xm"
xl"
bx k"
bx j"
xi"
xh"
bx g"
xf"
xe"
bx d"
bx c"
bx b"
bx000 a"
bx `"
bx _"
bx ^"
bx ]"
bx \"
bx ["
xZ"
bx Y"
bx X"
xW"
xV"
bx U"
xT"
bx S"
bx R"
bx Q"
bx P"
xO"
bx N"
bx M"
xL"
xK"
xJ"
xI"
bx H"
bx G"
bx F"
xE"
xD"
xC"
xB"
xA"
x@"
x?"
x>"
x="
x<"
x;"
x:"
x9"
bx 8"
bx 7"
bx 6"
bx 5"
bx 4"
bx 3"
bx 2"
x1"
x0"
x/"
x."
x-"
bx ,"
bx +"
bx *"
bx )"
bx ("
x'"
x&"
bx %"
bx $"
x#"
x""
x!"
bx ~
bx }
bx |
bx {
bx z
bx y
xx
xw
bx v
bx u
bx t
bx s
bx r
xq
bx p
bx o
bx n
xm
xl
bx00000000000000000000000000 k
bx j
bx i
bx h
bx g
bx f
bx e
xd
xc
xb
xa
x`
x_
x^
x]
x\
x[
xZ
xY
xX
bx W
xV
b11111111x000000000000000000000x U
xT
bx S
xR
bx Q
bx P
xO
xN
xM
xL
xK
xJ
xI
xH
xG
xF
bx E
xD
xC
xB
xA
bx @
x?
x>
x=
x<
x;
x:
bx 9
bx 8
x7
x6
x5
x4
x3
x2
x1
bx 0
x/
x.
bx -
bx ,
bx +
bx *
1)
x(
x'
x&
bx %
x$
x#
x"
x!
$end
#50
0)
#100
1)
b1000000011000000000000000000000 ,
b1000000011000000000000000000000 9
b1000000011000000000000000000000 +
b1000000011000000000000000000000 8
b0 -
b0 @
b0 *
b0 0
#110
b111000000000000000000000000 Q"
b111000000000000000000000000 M"
b10000001 )#
b10000001 *#
0O"
b111000000000000000000000000 R"
b0 (#
b111000000000000000000000000 c"
b10000010 %#
b10000001 &#
0,#
0o"
b111000000000000000000000000 b"
b0 \"
b1111110 ##
0Z"
b0 `"
b0 ]"
b1111111 +#
b10 s"
b1111111 $#
b0 '#
1-#
b111000000000000000000000000 N"
1e"
0l"
0K"
b11111111 ^"
b0 _"
b10000000 Y"
b10000000 ["
b111000000000000000000000000 a"
b11000000000000000000000 d"
00#
b11100000000000000000000000000000000000000000000000 k
b11100000000000000000000000000000000000000000000000 S$
b1 r
1E"
b10000000 7"
b11000000000000000000000 5"
0I"
0V"
0T"
b10000000 U"
b11000000000000000000000 P"
0t"
0}"
b10000000 ~"
0v"
0y"
b111000000000000000000000 e
b111000000000000000000000 z"
b111000000000000000000000 P$
b111000000000000000000000 T$
b10000000 8"
b11000000000000000000000 6"
0J"
0W"
b10000000 X"
b11000000000000000000000 S"
0u"
0!#
b10000000 "#
0w"
0{"
b111000000000000000000000 g
b111000000000000000000000 |"
b111000000000000000000000 O$
0x"
b0 y
b0 p"
b0 *"
b1000000011000000000000000000000 ("
b1000000011000000000000000000000 4"
b1000000011000000000000000000000 G"
b1000000011000000000000000000000 r"
b1000000011000000000000000000000 $"
b1000000011000000000000000000000 3"
b1000000011000000000000000000000 F"
b1000000011000000000000000000000 q"
#150
0)
#200
1)
#210
0L"
b110000000000000000000000000 i
b110000000000000000000000000 4#
1q
0M
0:"
0<"
0?"
0@"
1A"
0C"
1B"
0D"
0\
0X
09"
0;"
0="
0>"
b10000000 p
b10000000 g"
b111000000000000000000000000 h
b111000000000000000000000000 j"
b111000000000000000000000000 2#
b111000000000000000000000000 f
b111000000000000000000000000 k"
b111000000000000000000000000 3#
0J
0m"
0n"
1f"
0i"
1h"
1l
b10000001 o
b10000001 .#
b0 n
b0 /#
b10 E
b10 1#
0a
0I
0K
b110001000000000000000000000000000000000000000000 R$
b100000000000000000000000000 V$
b0 X$
b0 +"
b0 H"
b0 z
b1 s
b1000000011000000000000000000000 %"
0&"
#250
0)
#300
1)
#310
03
0?
02
01
b11000000000000000000000 q#
0<
0;
0>
0=
b11000000000000000000000 u#
b11000000000000000000000 p#
0%$
0T
b11000000000000000000001 t#
0w#
0c
0Q#
b11000000000000000000000 N$
0^#
0J#
b11000000000000000000000 s#
0&$
0:
0P#
0V
b1000000111000000000000000000000 W
b1000000111000000000000000000000 d#
0-$
b10000001 .$
0S#
0N#
0]#
0T#
0?#
b11000000000000000000000 r#
0c#
0n#
1R#
b10000001 ($
b10000001 L$
0U#
0C
b10000001 '$
b10000001 *$
b10000001 )$
0<#
0D
b0 o#
0v#
b11000000000000000000000 x#
b10000000 ,$
b10000010 +$
0K#
0I#
1j#
00$
0/$
b10000001 4$
b10000000 @$
0B
b110000000000000000000000000000000000000000000000 z#
0A
b0 y#
0F
0E#
b1 W#
09#
1i#
b1111111 V#
0m
b10011101 K$
b10000000 1$
b10000001 3$
02$
b11111111 ?$
07#
b1 [#
b1111111 X#
b1111111100000000000000000000000 U
1k#
0A#
b10011101 :$
b1111111 H$
b10010101 I$
b10010101 G$
b10101 l#
b10000000 =$
b1 "$
1;#
b1 Z#
0\#
b1111111 E$
0D$
0L
0H
07
0H#
04
0>#
0F#
0@#
b10000001 5$
b10000000 ;$
b0 }#
b1010101 <$
b101011 |#
b10 m#
b10110 !$
b10110 ~#
b1 M$
05#
06#
b10000010 Y#
0/
06
0.
05
0D#
b1 J$
b1111110 $$
0O#
0{#
b111000000000000000000000000000000000000000000000 |
b111000000000000000000000000000000000000000000000 C#
b100000000000000000000000000000000000000000000000 j
0G#
0#"
b10 2"
0!"
1w
0L#
0-"
0'"
b100000001100000000000000000000000000000000000000 }
08$
09$
b1111111 F$
b10000010 C$
b10000001 B$
b10000001 A$
b11111111000000000000000000000000000000000000000000000000 >$
b11 #$
b10000001 6$
b1111111 7$
b10000000 v
b10000000 :#
b1 t
b1 8#
b1110000000000000000000000000 ~
b0 u
b0 =#
0""
0."
00"
0/"
0e#
0h#
0f#
0g#
b0 {
b0 B#
1b#
0a#
0`#
0_#
b0 ,"
b0 M#
1O
b0 P
b0 W$
b100000000000000000000000000 Q
b100000000000000000000000000 U$
b110001000000000000000000000000000000000000000000 S
b110001000000000000000000000000000000000000000000 Q$
0`
0N
0Z
0^
0[
0_
0Y
0]
0G
0R
0b
0d
#350
0)
#400
1)
#410
1x
b1000000111000000000000000000000 %
b1000000111000000000000000000000 )"
0'
0$
01"
0"
0#
0&
0!
0(
#450
0)
#500
1)
#550
0)
#600
1)
#650
0)
#700
1)
#750
0)
#800
1)
#850
0)
#900
1)
#950
0)
#1000
1)
#1050
0)
#1100
1)
b111111100011110101110000101001 ,
b111111100011110101110000101001 9
b1 *
b1 0
#1110
b10000000 *#
b10000000 )#
b1 \"
b10001111010111000010100100 M"
b10000001 %#
b10000000 &#
b1 `"
b10001111010111000010100100 N"
b1111111 ##
b10000000 +#
b1 ]"
b10001111010111000010100100 c"
b10000000 $#
b11111111 '#
0-#
0e"
b0 ^"
b1 _"
b1111111 Y"
b10001111010111000010100100 b"
b100011110101110000101001000 a"
b11110101110000101001 d"
0E"
b1111111 7"
b11110101110000101001 5"
1V"
b1111111 U"
b11110101110000101001 P"
b1111111 ~"
b100011110101110000101001 e
b100011110101110000101001 z"
b100011110101110000101001 P$
b100011110101110000101001 T$
b1 y
b1 p"
b111111100011110101110000101001 ("
b111111100011110101110000101001 4"
b111111100011110101110000101001 G"
b111111100011110101110000101001 r"
#1150
0)
#1200
1)
#1210
b100110000101000111101011100 i
b100110000101000111101011100 4#
0q
0B"
1D"
b10001111010111000010100100 f
b10001111010111000010100100 k"
b10001111010111000010100100 3#
0f"
0h"
0l
b10000000 o
b10000000 .#
b11111010111000010100011111000000000000000000000 R$
b110001111111111111111111111 V$
b10011110101110000101001 X$
b1 z
#1250
0)
#1300
1)
#1310
13
12
11
b10000000 .$
1c
1Q#
1^#
b10000000 L$
b10000000 )$
b10000000 ($
1P#
b1000000000110000101000111101100 W
b1000000000110000101000111101100 d#
b110000101000111101100 u#
b10000000 *$
b10000000 '$
1N#
b1111111 ,$
b10000001 +$
b10000000 4$
b1111111 @$
0]#
1?#
b110000101000111101100 N$
b110000101000111101100 q#
b10 W#
1c#
1n#
b110000101000111101100 s#
b110000101000111101100 p#
b110000101000111101011 r#
b10 [#
b10011100 K$
b1000000000000000000000000 o#
b110000101000111101100 t#
b110000101000111101011 x#
b1111111 1$
b10000000 3$
b10 ?$
b10 "$
b10 J$
b10 Z#
b1111111 =$
b10011100 :$
b1111110 H$
b110001111111111111111111111000000000000000000000 j
b10000000 5$
b1111111 ;$
b1 }#
b1010100 <$
b101100 |#
b11 m#
b10010100 I$
b10010100 G$
b10100 l#
b10101 !$
b10101 ~#
b10 M$
b1100001010001111010111000000000000000000000000 z#
b10011000010100011110101110000000000000000000000000 >$
b10011000010100011110101110000000000000000000000 |
b10011000010100011110101110000000000000000000000 C#
0w
b100110000101000111101011100 ~
b1 {
b1 B#
0O
b10011110101110000101001 P
b10011110101110000101001 W$
b110001111111111111111111111 Q
b110001111111111111111111111 U$
b11111010111000010100011111000000000000000000000 S
b11111010111000010100011111000000000000000000000 Q$
#1350
0)
#1400
1)
#1410
0x
b1000000000110000101000111101100 %
b1000000000110000101000111101100 )"
1'
#1450
0)
#1500
1)
#1550
0)
#1600
1)
#1650
0)
#1700
1)
#1750
0)
#1800
1)
#1850
0)
#1900
1)
#1950
0)
#2000
1)
#2050
0)
#2100
1)
b10 -
b10 @
#2110
b10 *"
#2150
0)
#2200
1)
#2210
b10 +"
b10 H"
#2250
0)
#2300
1)
#2310
b1111111 $$
1O#
0b#
1`#
b10 ,"
b10 M#
#2350
0)
#2400
1)
#2450
0)
#2500
1)
#2550
0)
#2600
1)
#2650
0)
#2700
1)
#2750
0)
#2800
1)
#2850
0)
#2900
1)
#2950
0)
#3000
1)
#3050
0)
#3100
1)
b10 *
b10 0
#3110
1e"
1E"
b10 y
b10 p"
#3150
0)
#3200
1)
#3210
b1001111010111000010100100 i
b1001111010111000010100100 4#
1q
1f"
1l
b10 z
#3250
0)
#3300
1)
#3310
b1000000011110101110000101001000 W
b1000000011110101110000101001000 d#
b11110101110000101001000 u#
b11110101110000101001000 N$
1]#
b11110101110000101001000 q#
b11110101110000101001000 s#
b11110101110000101001000 p#
b11110101110000101000111 r#
b1100000000000000000000000 o#
b11110101110000101001000 t#
b11110101110000101000111 x#
b11 ?$
b111101011100001010001111100000000000000000000000 z#
b11111010111000010100011111000000000000000000000000 >$
b11111010111000010100011111000000000000000000000 |
b11111010111000010100011111000000000000000000000 C#
1w
b1001001111010111000010100100 ~
1e#
b10 {
b10 B#
#3350
0)
#3400
1)
#3410
1x
b1000000011110101110000101001000 %
b1000000011110101110000101001000 )"
#3450
0)
#3500
1)
#3550
0)
#3600
1)
#3650
0)
#3700
1)
#3750
0)
#3800
1)
#3850
0)
#3900
1)
#3950
0)
#4000
1)
#4050
0)
#4100
1)
b11 *
b11 0
#4110
b11 s"
b10000000 )#
b10000000 *#
b1111110 +#
0e"
b1111110 $#
b1 '#
b10000001 %#
b10000000 &#
0,#
0E"
b1111111 ##
b1 (#
1x"
b11 y
b11 p"
#4150
0)
#4200
1)
#4210
b100110000101000111101011100 i
b100110000101000111101011100 4#
0q
0f"
0l
b1 n
b1 /#
b11 E
b11 1#
b11 z
#4250
0)
#4300
1)
#4310
b10010000000000000000000 u#
b1110000000000000000000000 o#
b10010000000000000000000 N$
b10000000 @$
b10010000000000000000000 q#
b1000000010010000000000000000000 W
b1000000010010000000000000000000 d#
b10000000 .$
b10010000000000000000000 s#
b10010000000000000000000 p#
1C
b1 W#
b10001111111111111111111 r#
1D
b1 [#
b10011101 K$
b10010000000000000000000 t#
b10001111111111111111111 x#
b10000000 1$
b10000001 3$
b11111110 ?$
b10000000 L$
b10000000 )$
b10000000 ($
b1 "$
b1 J$
b1 Z#
b10000000 =$
b10011101 :$
b1111111 H$
b10000000 *$
b10000000 '$
b10000001 5$
b10000000 ;$
b0 }#
b1010101 <$
b101011 |#
b10 m#
b10010101 I$
b10010101 G$
b10101 l#
b10110 !$
b10110 ~#
b1 M$
b100011111111111111111111110000000000000000000000 z#
b10000010 V#
b1111111 ,$
b10000001 +$
b10000000 4$
b11111110001111111111111111111111000000000000000000000000 >$
b110001111111111111111111111000000000000000000000 |
b110001111111111111111111111000000000000000000000 C#
1#"
b11 2"
0w
b100110000101000111101011100 ~
b1 u
b1 =#
0e#
1h#
b11 {
b11 B#
#4350
0)
#4400
1)
#4410
0x
b1000000010010000000000000000000 %
b1000000010010000000000000000000 )"
